
==============

key = 48
(MXM":MQZ MQ3M) -:O,MM"ZMPOP(UQOM;"Z0 X"$;Z,"M"$ "(U:YR""MZQ U,:"ZTNQ"QM"T YYZ 4OM$NU ,;:(SXP)".: $Z"TX"Z,SQ O":Z:XR(;:M U;":S"ZU,U(M QQ.;" :( ZO"Z)
 TUQQOMOQ "" :U;OP( XM(,";TXT(Y(PR.QUUQXMYM:(((TOUO:"(:RS(;MZ;XQSM,Y)( OU UQZ"U("(M"YU."M",
==============

==============

key = 2
.IW!ZWKWZUIL!PWQ!T.,TK.W) VI..ILQUV!,..W!.ZU!Z?YPKZQUVPOW!KQIMNWT!P QWMK!0!VQPKQVI!KVQMTZMW IIYYMP!VI!V)OQK..!MVMJM.IUZQ
$WQWIK.N.IWQWKWMLO!,TYY!MWN..W!Z ZM!X I:)!ZVX!MI!Z V.Z WQVUKVPOT!ZQ QYYJTNWQMTXI!ML.Z TM!II!, .KIOI!!M!ZWLUI!V)IXIV.IYY
==============

==============

key = 3
 ,HV-JYUPJ-SYHLHYZ-UHVYX-VO UUSJ- O((SPUY  Z-HXUPIIUM .PT SP-H?YLP- H!Z OL YHVT-VOZVVJKJN-H-SMLXSYLOKMPH LU--HZ-HLP WJXHUH(--YUVWLVLYT-VKZHO XPZLSP-.THJUUVNNZ-JHP  PLKXLTSL-VH LYVW" -VTKVYYJXSMJ-HPHPU.JN L-HNPH.L-XV---VVZT V-VJ(Y
WYUU-OHZPX
==============

==============

key = 4
Z'G!UU)OXUUGIIUZXLSZGGJU)ONUUIOU)KRJZM )R IRZWUW;)YKTUGLZZZZGUJ)OXSYTX)K )ZVZYUG).Z;X)SX)TXV-)WKNGI)XXOYSTTZNXMYUU)OITOSGIKTLNUMRR))NXYOOYUOKWIW)H"R)LTUOONKIROVTGG))KIJTZOXKYRRXKK)UGYGG)G WYWZKING)MTGG)))TK;)MXOUIJZSZG))KTT;KGHVKGZTGZSGXWOW
==============

==============

key = 5
YJGHJT(KNKWFNSYHSQL(WLF(XFHJNJ(YYJUTJXTF(JJ(:YJFXWQF(TUYWXHJ:$H'(STLSXYT(MYFHJNXNKWFNSFIHRZNFNSYHSQL(JFJ(WLFXN(ZYFN)VVVVM(FMQWT(STRYT(JMTT:UTWRN(HWIYIF(M(WKXNSQQ QG(M(ZYFNSHRZJ(TNY(FX-F(WFNFNSYF(HWIY(STRYT(S(TRSHYT(JMTT:WQYIUTWR(SFXWQFVVVVV
==============

==============

key = 6
XRZEE,S;;;GVVRRSMTGI;SPIVVEQI;ESVHWW;ERLEXSUVMUW;ISPLMX;RYRQPEGG;RXRLS,K,KPWM;RGVEXMXXWX;MEIUHRUMIFQFPRIJ;XSYEMXQIXVPSMT;?EX);VSIQMH;SXVEV(GWUXPLJIGX;VEEMSEQM;RSYLGWKSXSIG;HEGKKM;EEY;IP;JUISU;P;V;ISLSHWJQMXESX;ISRG;,;VE$WT;VERIRM;XLTEGWUMEU
==============

==============

key = 8
VC-ECG;PQHQJ,QKITNQNQ,C,EJETQUVKTKHUOQVKCGCSFEQS,,KDJ!QNQ,EHKPQQ,KGKNJFGVEINWK,RNPWCECN,V,SGQESF P,VUKGTPGQUCNHNVTVGVGV,CQQCFU,CKCT,OCUWPSTU,SGVWG,EVJRCV,UIQPCC,CX,V, ,TP,GO T,,IPTTKRQ:E,FSVGOJVCCE,,,TGTPKPU OGPCPDVRJGTCIVUPQCQV,OKCETPSKKOS
==============

==============

key = 10
THE BACHELOR OF INFORMATION TECHNOLOGY PROGRAM IS ACCREDITED AT THE PROFESSIONAL LEVEL BY THE AUSTRALIAN COMPUTER SOCIETY (ACS), AN ORGANISATION THAT ACCREDITS INFORMATION AND COMMUNICATION TECHNOLOGY RELATED PROGRAMS IN AUSTRALIA.QQQQQQQQQ
==============

==============

key = 12
RYL:T88R8 WYMPYMYCYKAGPBPYLMLRMPG8NPAZCAYQMOJRCJPFPD8CKACRYY8PM8P8BGQMQ8YK8GLYFL8MRSMFOAPQGEOMQRYMCCMAJYFBG8RAYELESGLYK8J88SAYACYJLYRDLOFCMMWOEYWJEYJPQYGCYMLFAMPB8QRDGKRGRRQ8RMYRGY8CCMOLBALYOWGYCP98K;9QJNLYCPD8YLRCMLSG8YGRRFKNC8RAPQJOMGG8NO
==============

==============

key = 15
ODG9AQ6MG7569DVJICV5VA8PD7OAH5MPD5DID57IDHOIP7O9I7VGIJBGDVBOMVVB9555NV9XNV55MV7BM955DND9D5VVDOPIOOO955KDVJW79LMNL8JLO5LVVCI9VJ95HVCOTGJOMV9JI5VVNIJMJHGHI5O7VJOJVJK9VOC9MJCNJJ7TJ9KTTJM MG7HO.D8VVKI7JJMMB8HIOVN8IO55JVNVCMCVGOM55AL7NL9DLDILNGL
==============

==============

key = 16
N44IZI64478MWUH4IC94ILBUUGI4CMAOLHFKILFMIUUK48UN6OB86UL6INMBNJC4LNCU9MMAGIIHN4C44U844PKU7N6UISKUULUHCU58BG SILFUIUUA6H9LCLHCIJIIUVC68UC7FKBN788GNB6NA4F4O6CUUUJUFLH8OL4H6C4HFMUSNGU8KH84IH65KN7JSBH8ULN4MACN8MLHHI84IIMN4UFG9CF4N6LLNH8KNC8CNGUK
==============

==============

key = 40

640.U6-Y
B,66UWV
WUU."
WYC,.68!Y?6-('U6!!-
'Z6Y6Y!W!"'.Z" -6,U!,!-(--,!ZU" !(U4'6
6)(,'UY!Y
1-(,Y6U!(

-6.Y6VUX
4
6Y66?W
U'..W!-YW !6''(UYU!0X) ","4

66'",?U6-'(,6!,-U UZ0'-!"U6'
)W)'6!UU,)
("?,,60!UU
-7WY6$W'U$'6-$Y"X$X!6$,WW$
,!$YY)$X
)$
==============

==============

key = 20
JO7Q4VQ0120I2W7S4QB0EDHQQEEH56Q08DD85IE0HJC80EJD8QEJD7Q0JJ4Q2072D2EHB4E368OJQIFQH8ED65HE0HCCQ08JI8QE0D2Q20HD433Q82JE4C3CQK0DJ8Q2J07J48QEFDHQEJ5442I7ID8EEBDE06BOQQBH44LB40BJQ413OQQFJH7E46QH00KCIIJQH80DBQ800KDIQJ2HE0CBF8K0JR4GHGQGIGEG2G8G4GJG
==============

==============

key = 24
F7M$9$RGH"$M$"F0$MO7K9MMAFD1M9ACM300MA8A"K4CD2
MDKM792AM97FDAEDM44$0BMDA"9N30""AMDE
A$CE7FF10478DF34DF1F$E0$8F"A0MFFM4MM$$D0A0$ADC$9

4"E9AMEC$KM48M$04D9'M$389S$'AEF7GBA93MC0"DD1E$4M29CFA0EAF9MGA40$0MA4"F7FM338
B40$$FF""MD2E972CGA4494M$8B$C
==============

==============

key = 30
9G"'13!!?GB4(!7;12)G;'(9!E"1G44937'GG!;4G3?;-GAG"8)394?724;271A2"3;;"93)"G;4)934"G24953!AG)99'!!37)4G'183444$)1E"4G!$59E7EG4G7$L!7;1;);289GM!"I-8GGG;5;37)G4)4$777!$;-;2"389"G!8"-;3G9G;";94AG389G9'97!';G;159"7G;4;H?)6!)68768!6"-64"6396;861G6
==============
